G04 #@! TF.GenerationSoftware,KiCad,Pcbnew,7.0.10-7.0.10~ubuntu22.04.1*
G04 #@! TF.CreationDate,2024-01-14T02:35:10-06:00*
G04 #@! TF.ProjectId,SerialToUART,53657269-616c-4546-9f55-4152542e6b69,1.0*
G04 #@! TF.SameCoordinates,Original*
G04 #@! TF.FileFunction,Legend,Bot*
G04 #@! TF.FilePolarity,Positive*
%FSLAX46Y46*%
G04 Gerber Fmt 4.6, Leading zero omitted, Abs format (unit mm)*
G04 Created by KiCad (PCBNEW 7.0.10-7.0.10~ubuntu22.04.1) date 2024-01-14 02:35:10*
%MOMM*%
%LPD*%
G01*
G04 APERTURE LIST*
G04 Aperture macros list*
%AMRoundRect*
0 Rectangle with rounded corners*
0 $1 Rounding radius*
0 $2 $3 $4 $5 $6 $7 $8 $9 X,Y pos of 4 corners*
0 Add a 4 corners polygon primitive as box body*
4,1,4,$2,$3,$4,$5,$6,$7,$8,$9,$2,$3,0*
0 Add four circle primitives for the rounded corners*
1,1,$1+$1,$2,$3*
1,1,$1+$1,$4,$5*
1,1,$1+$1,$6,$7*
1,1,$1+$1,$8,$9*
0 Add four rect primitives between the rounded corners*
20,1,$1+$1,$2,$3,$4,$5,0*
20,1,$1+$1,$4,$5,$6,$7,0*
20,1,$1+$1,$6,$7,$8,$9,0*
20,1,$1+$1,$8,$9,$2,$3,0*%
G04 Aperture macros list end*
%ADD10RoundRect,0.250000X0.750000X-0.600000X0.750000X0.600000X-0.750000X0.600000X-0.750000X-0.600000X0*%
%ADD11O,2.000000X1.700000*%
%ADD12R,1.700000X1.700000*%
%ADD13O,1.700000X1.700000*%
%ADD14RoundRect,0.250000X0.600000X0.750000X-0.600000X0.750000X-0.600000X-0.750000X0.600000X-0.750000X0*%
%ADD15O,1.700000X2.000000*%
%ADD16RoundRect,0.102000X0.787500X-0.787500X0.787500X0.787500X-0.787500X0.787500X-0.787500X-0.787500X0*%
%ADD17C,1.779000*%
%ADD18C,4.320000*%
G04 APERTURE END LIST*
%LPC*%
D10*
X151130000Y-85050000D03*
D11*
X151130000Y-82550000D03*
D12*
X178435000Y-101600000D03*
D13*
X178435000Y-104140000D03*
D14*
X169500000Y-82000000D03*
D15*
X167000000Y-82000000D03*
D10*
X151384000Y-97282000D03*
D11*
X151384000Y-94782000D03*
D16*
X185905000Y-85597000D03*
D17*
X185905000Y-88367000D03*
X185905000Y-91137000D03*
X185905000Y-93907000D03*
X185905000Y-96677000D03*
X188745000Y-86982000D03*
X188745000Y-89752000D03*
X188745000Y-92522000D03*
X188745000Y-95292000D03*
D18*
X187325000Y-103632000D03*
X187325000Y-78642000D03*
%LPD*%
M02*
